$(document).ready(function() {
  $('#acchead').on("change",function () {
        var index = $(this).val();
          document.getElementById("mcode").value = document.getElementById("acchead").selectedIndex;
          var s = '<option value=' + -1 + '>SELECT</option>';  
     $('#accsubhead').html(s);
     $('#accgrpbhead').html(s);
if (index > 0) {
       $.ajax({
        url : 'GetCities',
        data : { "index" : index },
        success : function(result) {
            var result = JSON.parse(result);
            for (var i = 0; i < result.length; i++) {
              s += '<option value="' + result[i][0] + '">'+ result[i][1]+ '</option>';
            }
            $('#accsubhead').html(s);       
     }
 });

 };                             
                              

//      var accid = $(this).val();
//      var s = '<option value=' + -1 + '>SELECT</option>';
//      if (accid > 0) {
//      	$.ajax({
//        url : 'GetCities',
//        data : { "accid" : accid },
//        success : function(result) {
//        	var result = JSON.parse(result);
//        	for (var i = 0; i < result.length; i++) {
//        	  s += '<option value="' + result[i][0] + '">'+ result[i][1]+ '</option>';
//        	}
//        	$('#accsubhead').html(s);
//        }
//      });
//     }
//     //reset data
//     $('#accsubhead').html(s);
//     $('#accgrpbhead').html(s);
//
//   });
//
//   $("#accsubhead").change(function() {
//      var subaccid = $(this).val();
//      var s = '<option value=' + -1 + '>SELECT</option>';
//      if (stateId > 0) {
//      	$.ajax({
//        url : 'GetCities',
//        data : {"subaccid" : subaccid},
//        success : function(result) {
//        	var result = JSON.parse(result);
//        	for (var i = 0; i < result.length; i++) {
//        		s += '<option value="' + result[i][0] + '">'+ result[i][1]+ '</option>';
//        	}
//        	$('#accgrpbhead').html(s);
//        }
//       });
//     }
//     //reset data
//     $('#accgrpbhead').html(s);
//  });
//
//});



// $(function () {
//     $('#acchead').on("change", function() {
//     	var index = document.getElementById("acchead").selectedIndex;
//     	document.getElementById("mcode").value = document.getElementById("acchead").selectedIndex;
// //            console.log($('#acchead option:selected').val(index));
// //            alert(index)
//            // your ajax call
//     	 alert("Before Ajax..!");
//     $.ajax({  
//         type : 'GET',  
//         url : "/NewAccountForm/myMealPlan",  

//     });
//     alert("onUnLoad Bye");
//  $(function () {
//    $('#acchead').on("change",function () {
//    	var index = document.getElementById("acchead").selectedIndex;
//    	document.getElementById("mcode").value = document.getElementById("acchead").selectedIndex;
//        $.getJSON('GetCities', function (data) {
//
//            $("ul#output > li").remove();
//
//            $.each(data, function (key, value) {
//                $("#output").append('<li>' + value['Sub_Code'] + " " + value['Sub_Account_Head'] + '</li>');
//            });
//        });
//    });
//
//    

//     $( document ).ready(function() {

//     	// GET REQUEST
//     	$("#acchead").on("change",function(event){
//     		event.preventDefault();
//     		var index = document.getElementById("acchead").selectedIndex;
//         	document.getElementById("mcode").value = document.getElementById("acchead").selectedIndex;
//     		ajaxGet();
//     	});

//     	// DO GET
//     	function ajaxGet(){
//     		$.ajax({
//     			type : "GET",
//     			url : window.location + "/NewAccountForm/myMealPlan",
//     			success: function(result){
//     				if(result.status == "Done"){
//     					$('#getResultDiv ul').empty();
//     					var custList = "";
//     					$.each(result.data, function(i, customer){
//     						var customer = "- Customer with Id = " + i + ", firstname = " + customer.firstname + ", lastName = " + customer.lastname + "";
//     						$('#getResultDiv .list-group').append(customer)
//     			        });
//     					console.log("Success: ", result);
//     				}else{
//     					$("#getResultDiv").html("Error");
//     					console.log("Fail: ", result);
//     				}
//     			},
//     			error : function(e) {
//     				$("#getResultDiv").html("Error");
//     				console.log("ERROR: ", e);
//     			}
//     		});	
//     	}
//     })


//            $.ajax({
//     		 type : "GET",
//     		 contentType: "detailsacchead/json",
//     		 dataType: "json",
//     		 url : "/test/country/" + lat + "-" + lon,
//     		 success : function (data, status) {
//     		    /*CODE*/
//     		 },
//     		});

//    });

// function bye(){
//     alert("Before Ajax..!");
//     $.ajax({  
//         type : 'GET',  
//         url : "/patient/myMealPlan",  

//     });
//     alert("onUnLoad Bye");
// }
// function insertValue()
// {
//     var select = document.getElementById("acchead"),
//         txtVal = document.getElementById("val").value,
//         newOption = document.createElement("OPTION"),
//         newOptionVal = document.createTextNode(txtVal);

//     newOption.appendChild(newOptionVal);
//     select.insertBefore(newOption,select.firstChild);
// }

/*<![CDATA[*/
// function setVal() {
// 	var index = document.getElementById("acchead").selectedIndex;
// 	document.getElementById("mcode").value = document.getElementById("acchead").selectedIndex;
// 	alert(index);
// }

/*<![CDATA[*/
//   var myval = /*[[${mykey}]]*/ "Test";
//   alert(myval);
//   var listVals = /*[[${myList}]]*/ "Test1";
/*]]>*/
//  var mainDiv = document.getElementById("main");
//  for(i=0; i<listVals.length; i++){
// 	 //create text node
// 	 var t = document.createTextNode(listVals[i].name+' '+listVals[i].age);
// 	 //create para node
// 	 var p = document.createElement("P");
// 	 //attach text to para
// 	 p.appendChild(t);
// 	 //attach para to div
// 	 mainDiv.appendChild(p);
//  }